# 1 "./t1.cil.c"
# 1 "<built-in>"
# 1 "<command-line>"
# 1 "/usr/include/stdc-predef.h" 1 3 4
# 1 "<command-line>" 2
# 1 "./t1.cil.c"
# 8 "../test/t1.c"
void __globinit_t1(void) ;
extern void __CrestInit(void) __attribute__((__crest_skip__)) ;
extern void __CrestHandleReturn(int id , long long val ) __attribute__((__crest_skip__)) ;
extern void __CrestReturn(int id ) __attribute__((__crest_skip__)) ;
extern void __CrestCall(int id , unsigned int fid ) __attribute__((__crest_skip__)) ;
extern void __CrestBranch(int id , int bid , unsigned char b ) __attribute__((__crest_skip__)) ;
extern void __CrestApply2(int id , int op , long long val ) __attribute__((__crest_skip__)) ;
extern void __CrestApply1(int id , int op , long long val ) __attribute__((__crest_skip__)) ;
extern void __CrestClearStack(int id ) __attribute__((__crest_skip__)) ;
extern void __CrestStore(int id , unsigned long addr ) __attribute__((__crest_skip__)) ;
extern void __CrestLoad(int id , unsigned long addr , long long val ) __attribute__((__crest_skip__)) ;
# 206 "./../include/crest.h"
extern void __CrestInt(int *x ) __attribute__((__crest_skip__)) ;
# 362 "/usr/include/stdio.h"
extern int printf(char const * __restrict __format , ...) ;
# 8 "../test/t1.c"
int main(void)
{
  int desiredLevel ;
  int temprature ;
  int HighTemps ;
  int DesiredLevel ;
  int Temprature ;
  int Warnings ;
  int __retres7 ;

  {
  __globinit_t1();
  __CrestCall(1, 1);
# 15 "../test/t1.c"
  __CrestInt(& desiredLevel);
# 16 "../test/t1.c"
  __CrestInt(& temprature);
# 17 "../test/t1.c"
  __CrestInt(& HighTemps);
  __CrestLoad(4, (unsigned long )(& HighTemps), (long long )HighTemps);
  __CrestLoad(3, (unsigned long )0, (long long )9);
  __CrestApply2(2, 15, (long long )(HighTemps <= 9));
# 19 "../test/t1.c"
  if (HighTemps <= 9) {
    __CrestBranch(5, 3, 1);
# 20 "../test/t1.c"
    printf((char const * __restrict )"----branch visited: HighTemps<=9----\n");
    __CrestClearStack(7);
    {
    __CrestLoad(10, (unsigned long )(& desiredLevel), (long long )desiredLevel);
    __CrestLoad(9, (unsigned long )0, (long long )0);
    __CrestApply2(8, 14, (long long )(desiredLevel > 0));
# 21 "../test/t1.c"
    if (desiredLevel > 0) {
      __CrestBranch(11, 5, 1);
      __CrestLoad(13, (unsigned long )(& desiredLevel), (long long )desiredLevel);
      __CrestStore(14, (unsigned long )(& DesiredLevel));
# 22 "../test/t1.c"
      DesiredLevel = desiredLevel;
      __CrestLoad(17, (unsigned long )(& Warnings), (long long )Warnings);
      __CrestLoad(16, (unsigned long )(& desiredLevel), (long long )desiredLevel);
      __CrestApply2(15, 0, (long long )(Warnings + desiredLevel));
      __CrestStore(18, (unsigned long )(& Warnings));
# 23 "../test/t1.c"
      Warnings += desiredLevel;
# 24 "../test/t1.c"
      printf((char const * __restrict )"----branch visited: desiredLevel>0----\n");
      __CrestClearStack(19);
    } else {
      __CrestBranch(12, 6, 0);
# 27 "../test/t1.c"
      printf((char const * __restrict )"----branch visited: !(desiredLevel>0)----\n");
      __CrestClearStack(20);
    }
    }
    {
    __CrestLoad(23, (unsigned long )(& temprature), (long long )temprature);
    __CrestLoad(22, (unsigned long )0, (long long )0);
    __CrestApply2(21, 14, (long long )(temprature > 0));
# 29 "../test/t1.c"
    if (temprature > 0) {
      __CrestBranch(24, 8, 1);
# 30 "../test/t1.c"
      printf((char const * __restrict )"----branch visited: temprature>0----\n");
      __CrestClearStack(26);
      __CrestLoad(27, (unsigned long )(& temprature), (long long )temprature);
      __CrestStore(28, (unsigned long )(& Temprature));
# 31 "../test/t1.c"
      Temprature = temprature;
      {
      __CrestLoad(31, (unsigned long )(& Temprature), (long long )Temprature);
      __CrestLoad(30, (unsigned long )0, (long long )90);
      __CrestApply2(29, 17, (long long )(Temprature >= 90));
# 32 "../test/t1.c"
      if (Temprature >= 90) {
        __CrestBranch(32, 10, 1);
        __CrestLoad(36, (unsigned long )(& HighTemps), (long long )HighTemps);
        __CrestLoad(35, (unsigned long )0, (long long )1);
        __CrestApply2(34, 0, (long long )(HighTemps + 1));
        __CrestStore(37, (unsigned long )(& HighTemps));
# 33 "../test/t1.c"
        HighTemps ++;
# 34 "../test/t1.c"
        printf((char const * __restrict )"----branch visited: temprature>=90----\n");
        __CrestClearStack(38);
      } else {
        __CrestBranch(33, 11, 0);
        __CrestLoad(41, (unsigned long )(& HighTemps), (long long )HighTemps);
        __CrestLoad(40, (unsigned long )0, (long long )1);
        __CrestApply2(39, 1, (long long )(HighTemps - 1));
        __CrestStore(42, (unsigned long )(& HighTemps));
# 37 "../test/t1.c"
        HighTemps --;
# 38 "../test/t1.c"
        printf((char const * __restrict )"----branch visited: !(temprature>=90)----\n");
        __CrestClearStack(43);
      }
      }
    } else {
      __CrestBranch(25, 12, 0);
# 42 "../test/t1.c"
      printf((char const * __restrict )"----branch visited: !(temprature>0)----\n");
      __CrestClearStack(44);
    }
    }
  } else {
    __CrestBranch(6, 13, 0);
# 45 "../test/t1.c"
    printf((char const * __restrict )"----branch visited: !(HighTemps<=9)----\n");
    __CrestClearStack(45);
  }
  __CrestLoad(46, (unsigned long )0, (long long )0);
  __CrestStore(47, (unsigned long )(& __retres7));
# 47 "../test/t1.c"
  __retres7 = 0;
  __CrestLoad(48, (unsigned long )(& __retres7), (long long )__retres7);
  __CrestReturn(49);
# 8 "../test/t1.c"
  return (__retres7);
}
}
void __globinit_t1(void)
{


  {
  __CrestInit();
}
}
